{
	"pageName": "Page not found",
	"pageTitle": "Sorry, we can't find that page",
	"pageFriendlyURL": "/page-not-found",
	"parentFriendlyURL": "/home",
	"private": false,
	"hidden": true,
	"addGuestPermissions": true,
	"fragments": [
		{
			"id": "DIGITAL_PLACE-page-header",
			"placeholder": "${PLACEHOLDER_PAGE_HEADER}"
		},
		{
			"id": "BASIC_COMPONENT-html",
			"placeholder": "${PLACEHOLDER_PAGE_NOT_FOUND_HTML}",
			"preferences": {
				"com.liferay.fragment.entry.processor.background.image.BackgroundImageFragmentEntryProcessor": {
					
				},
				"com.liferay.fragment.entry.processor.editable.EditableFragmentEntryProcessor": {
					"element-html": {
						"segments-experience-id-0": {
							"en_GB": "\t\t<p>The page might have been moved or deleted. Or you may have followed a broken link or mis-typed the web address.</p>\r\n\t\t<p>To find the correct page:</p>\r\n\t\t<ul>\r\n\t\t\t<li>use the search at the top of this page</li>\r\n\t\t\t<li>go to the homepage and follow the links</li>\r\n\t\t\t<li>if you typed the address, check your typing</li>\r\n\t\t</ul>"
						},
						"defaultValue": "\n\t\t<h1>\n\t\t\tHTML Example\n\t\t</h1>\n\n\t\t<p>\n\t\t\tA paragraph is a <strong>self-contained</strong> unit of a discourse in writing dealing with a particular point or <em>idea</em>. Paragraphs are usually an expected part of formal writing, used to organize longer prose.\n\t\t</p>\n\t",
						"config": {
							
						}
					}
				},
				"com.liferay.fragment.entry.processor.freemarker.FreeMarkerFragmentEntryProcessor": {
					
				}
			}
		}
	],
	"portlets": [],
	"contentStructureDefinition": {
		"deletedItems": [],
		"rootItems": {
			"dropZone": "",
			"main": "root"
		},
		"items": {
			"child211": {
				"itemId": "child211",
				"children": [],
				"type": "fragment",
				"config": {
					"tablet": {
						"styles": {}
					},
					"indexed": true,
					"cssClasses": [],
					"landscapeMobile": {
						"styles": {}
					},
					"portraitMobile": {
						"styles": {}
					},
					"styles": {},
					"fragmentEntryLinkId": "${PLACEHOLDER_PAGE_NOT_FOUND_HTML}"
				},
				"parentId": "child21"
			},
			"child2": {
				"itemId": "child2",
				"children": [
					"child21"
				],
				"type": "container",
				"config": {
					"htmlTag": "",
					"indexed": true,
					"cssClasses": [],
					"link": {},
					"portraitMobile": {
						"styles": {}
					},
					"align": "",
					"widthType": "fluid",
					"tablet": {
						"styles": {}
					},
					"flexWrap": "",
					"justify": "",
					"landscapeMobile": {
						"styles": {}
					},
					"styles": {},
					"contentDisplay": ""
				},
				"parentId": "root"
			},
			"root": {
				"itemId": "root",
				"children": [
					"child1",
					"child2"
				],
				"type": "root",
				"config": {},
				"parentId": ""
			},
			"child1": {
				"itemId": "child1",
				"children": [],
				"type": "fragment",
				"config": {
					"tablet": {
						"styles": {}
					},
					"indexed": true,
					"cssClasses": [],
					"landscapeMobile": {
						"styles": {}
					},
					"portraitMobile": {
						"styles": {}
					},
					"styles": {},
					"fragmentEntryLinkId": "${PLACEHOLDER_PAGE_HEADER}"
				},
				"parentId": "root"
			},
			"child21": {
				"itemId": "child21",
				"children": [
					"child211"
				],
				"type": "container",
				"config": {
					"htmlTag": "",
					"indexed": true,
					"cssClasses": [],
					"link": {},
					"portraitMobile": {
						"styles": {}
					},
					"align": "",
					"widthType": "fixed",
					"tablet": {
						"styles": {}
					},
					"flexWrap": "",
					"justify": "",
					"landscapeMobile": {
						"styles": {}
					},
					"styles": {},
					"contentDisplay": ""
				},
				"parentId": "child2"
			}
		},
		"version": 1.1
	}
}	


