{
	"collectionName": "Digital Place",
	"pageTemplateName": "Category Page",
	"fragments": [
		{
			"id": "DIGITAL_PLACE-page-header",
			"placeholder": "${PLACEHOLDER_PAGE_HEADER}"
		}
	],
	"portlets": [
		{
			"id": "com_liferay_asset_publisher_web_portlet_AssetPublisherPortlet",
			"placeholder": "${PLACEHOLDER_ASSET_PUBLISHER}",
			"preferences": [
				{
					"name": "orderByType1",
					"value": "ASC"
				},
				{
					"name": "selectionStyle",
					"value": "manual"
				},
				{
					"name": "orderByType2",
					"value": "DESC"
				},
				{
					"name": "orderByColumn2",
					"value": "modifiedDate"
				},
				{
					"name": "displayStyle",
					"value": "ddmTemplate_ASSET-PUBLISHER-FEATURED-CONTENT-NAV-PANELS"
				},
				{
					"name": "orderByColumn1",
					"value": "title"
				},
				{
					"name": "assetLinkBehavior",
					"value": "showFullContent"
				}
			]
		},
		{
			"id": "com_liferay_site_navigation_menu_web_portlet_SiteNavigationMenuPortlet",
			"placeholder": "${PLACEHOLDER_SITE_NAVIGATION_MENU}",
			"preferences": [
				{
					"name": "displayDepth",
					"value": "1"
				},
				{
					"name": "rootMenuItemType",
					"value": "relative"
				},
				{
					"name": "siteNavigationMenuType",
					"value": "-1"
				},
				{
					"name": "rootMenuItemLevel",
					"value": "0"
				},
				{
					"name": "displayStyle",
					"value": "ddmTemplate_NAV-ITEM-NAV-MENU-LINK-PANELS"
				},
				{
					"name": "displayStyleGroupId",
					"value": "${PLACEHOLDER_GROUP_ID}"
				},
				{
					"name": "expandedLevels",
					"value": "all"
				},
				{
					"name": "siteNavigationMenuId",
					"value": "0"
				}
			]
		}
	],
	"contentStructureDefinition": {
		"deletedItems": [],
		"rootItems": {
			"dropZone": "",
			"main": "root"
		},
		"items": {
			"child1": {
				"itemId": "child1",
				"children": [],
				"type": "fragment",
				"config": {
					"tablet": {
						"styles": {}
					},
					"indexed": true,
					"cssClasses": [],
					"landscapeMobile": {
						"styles": {}
					},
					"portraitMobile": {
						"styles": {}
					},
					"styles": {},
					"fragmentEntryLinkId": "${PLACEHOLDER_PAGE_HEADER}"
				},
				"parentId": "root"
			},
			"child2111": {
				"itemId": "child2111",
				"children": [
					"child21111"
				],
				"type": "column",
				"config": {
					"tablet": {},
					"size": 12,
					"landscapeMobile": {
						"size": 12
					},
					"portraitMobile": {}
				},
				"parentId": "child211"
			},
			"child31": {
				"itemId": "child31",
				"children": [
					"child311"
				],
				"type": "container",
				"config": {
					"htmlTag": "",
					"indexed": true,
					"cssClasses": [],
					"link": {},
					"portraitMobile": {
						"styles": {}
					},
					"align": "",
					"widthType": "fixed",
					"tablet": {
						"styles": {}
					},
					"flexWrap": "",
					"justify": "",
					"landscapeMobile": {
						"styles": {}
					},
					"styles": {
						"paddingBottom": "3",
						"paddingRight": "3",
						"paddingTop": "3",
						"paddingLeft": "3"
					},
					"contentDisplay": ""
				},
				"parentId": "child3"
			},
			"root": {
				"itemId": "root",
				"children": [
					"child1",
					"child2",
					"child3"
				],
				"type": "root",
				"config": {},
				"parentId": ""
			},
			"child31111": {
				"itemId": "child31111",
				"children": [],
				"type": "fragment",
				"config": {
					"tablet": {
						"styles": {}
					},
					"indexed": true,
					"cssClasses": [],
					"landscapeMobile": {
						"styles": {}
					},
					"portraitMobile": {
						"styles": {}
					},
					"styles": {},
					"fragmentEntryLinkId": "${PLACEHOLDER_SITE_NAVIGATION_MENU}"
				},
				"parentId": "child3111"
			},
			"child21111": {
				"itemId": "child21111",
				"children": [],
				"type": "fragment",
				"config": {
					"tablet": {
						"styles": {}
					},
					"indexed": true,
					"cssClasses": [],
					"landscapeMobile": {
						"styles": {}
					},
					"portraitMobile": {
						"styles": {}
					},
					"styles": {},
					"fragmentEntryLinkId": "${PLACEHOLDER_ASSET_PUBLISHER}"
				},
				"parentId": "child2111"
			},
			"child311": {
				"itemId": "child311",
				"children": [
					"child3111"
				],
				"type": "row",
				"config": {
					"tablet": {
						"styles": {}
					},
					"numberOfColumns": 1,
					"indexed": true,
					"modulesPerRow": 1,
					"cssClasses": [],
					"reverseOrder": false,
					"landscapeMobile": {
						"modulesPerRow": 1,
						"styles": {}
					},
					"portraitMobile": {
						"styles": {}
					},
					"gutters": true,
					"styles": {},
					"verticalAlignment": "top"
				},
				"parentId": "child31"
			},
			"child2": {
				"itemId": "child2",
				"children": [
					"child21"
				],
				"type": "container",
				"config": {
					"htmlTag": "",
					"indexed": true,
					"cssClasses": [],
					"link": {},
					"portraitMobile": {
						"styles": {}
					},
					"tablet": {
						"styles": {}
					},
					"flexWrap": "",
					"justify": "",
					"landscapeMobile": {
						"styles": {}
					},
					"styles": {},
					"contentDisplay": ""
				},
				"parentId": "root"
			},
			"child211": {
				"itemId": "child211",
				"children": [
					"child2111"
				],
				"type": "row",
				"config": {
					"tablet": {
						"styles": {}
					},
					"numberOfColumns": 1,
					"indexed": true,
					"modulesPerRow": 1,
					"cssClasses": [],
					"reverseOrder": false,
					"landscapeMobile": {
						"modulesPerRow": 1,
						"styles": {}
					},
					"portraitMobile": {
						"styles": {}
					},
					"gutters": true,
					"styles": {},
					"verticalAlignment": "top"
				},
				"parentId": "child21"
			},
			"child3": {
				"itemId": "child3",
				"children": [
					"child31"
				],
				"type": "container",
				"config": {
					"htmlTag": "",
					"indexed": true,
					"cssClasses": [],
					"link": {},
					"portraitMobile": {
						"styles": {}
					},
					"tablet": {
						"styles": {}
					},
					"flexWrap": "",
					"justify": "",
					"landscapeMobile": {
						"styles": {}
					},
					"styles": {},
					"contentDisplay": ""
				},
				"parentId": "root"
			},
			"child21": {
				"itemId": "child21",
				"children": [
					"child211"
				],
				"type": "container",
				"config": {
					"htmlTag": "",
					"indexed": true,
					"cssClasses": [],
					"link": {},
					"portraitMobile": {
						"styles": {}
					},
					"align": "",
					"widthType": "fixed",
					"tablet": {
						"styles": {}
					},
					"flexWrap": "",
					"justify": "",
					"landscapeMobile": {
						"styles": {}
					},
					"styles": {
						"paddingBottom": "3",
						"paddingRight": "3",
						"paddingTop": "3",
						"paddingLeft": "3"
					},
					"contentDisplay": ""
				},
				"parentId": "child2"
			},
			"child3111": {
				"itemId": "child3111",
				"children": [
					"child31111"
				],
				"type": "column",
				"config": {
					"tablet": {},
					"size": 12,
					"landscapeMobile": {
						"size": 12
					},
					"portraitMobile": {}
				},
				"parentId": "child311"
			}
		}
	}
}
		

